11
3/4,0
1/4,1/2
3/4,1
0,1/4
0,0
0,3/4
0,1
1,1/4
1,3/4
1,0
1,1
7
3 0 2 1
4 4 0 1 3
4 5 1 2 6
3 3 1 5
4 0 7 8 2
3 0 9 7
3 8 10 2
1,0
1/2,1/2
1,1
3/4,3/4
1,3/4
3/4,1/4
1,1/4
3/4,1/4
3/4,3/4
1,1/4
1,3/4

