16
1/4,11/16
1/4,5/16
3/4,5/16
3/4,11/16
0,5/16
0,11/16
1/4,1
3/4,1
0,1
1,5/16
1,11/16
1,1
1/4,0
3/4,0
0,0
1,0
9
4 1 2 3 0
4 4 1 0 5
4 0 3 7 6
4 5 0 6 8
4 2 9 10 3
4 3 10 11 7
4 12 13 2 1
4 14 12 1 4
4 13 15 9 2
3/4,9/8
3/4,3/4
5/4,3/4
5/4,9/8
1,3/4
1,9/8
3/4,13/16
5/4,13/16
1,13/16
1,3/4
1,9/8
1,13/16
3/4,17/16
5/4,17/16
1,17/16
1,17/16

