47
169/296,2/3
201/296,13/37
95/296,1/3
1669/2664,1/3
95/296,2/3
21/296,2/3
0,1633/3552
0,877/2590
41/2664,1/3
0,2/3
0,1/3
4731/10360,1
95/296,1
0,3103/3552
41/2664,1
0,7729/7770
0,1
1949/2664,41/111
10655/10952,2287/4107
8415/10952,3368/4107
1,239/518
1,129779/248640
10577/10952,3998/4107
1,1325327/1393568
1,69346/119991
1,1
11654/11655,1
201115/319976,1
9911/10360,1
7099/10360,1/3
1,1/3
1,41/111
201/296,35/111
169/296,0
95/296,0
21/296,0
0,245/1184
0,2549/7770
0,0
283995/319976,0
10655/10952,451/4107
1949/2664,11/37
1,35981/248640
1,319/1554
1,0
1,10648/119991
1,11/37
30
5 2 3 1 0 4
6 6 7 8 2 4 5
3 6 5 9
3 10 8 7
4 4 0 11 12
6 5 4 12 14 15 13
3 9 5 13
3 15 14 16
5 1 17 18 19 0
4 17 20 21 18
5 18 24 23 22 19
4 22 23 25 26
3 21 24 18
4 0 19 27 11
4 19 22 28 27
3 22 26 28
3 3 29 1
5 29 30 31 17 1
3 17 31 20
5 34 33 32 3 2
6 35 34 2 8 37 36
3 38 35 36
3 37 8 10
5 33 39 40 41 32
4 40 42 43 41
4 39 44 45 40
3 40 45 42
3 32 29 3
5 41 46 30 29 32
3 43 46 41
1,1
41/37,76/111
3/4,2/3
19/18,2/3
3/4,1
1,1
317/296,939/1184
317/296,5221/7770
19/18,2/3
382523/405224,48448/50653
432661/405224,34247/50653
31/35,2/3
3/4,2/3
317/296,939/1184
19/18,2/3
317/296,5221/7770
432661/405224,34247/50653
19/18,2/3
3/4,2/3
3/4,1
233/296,393/518
3/4,4777/6720
1,1
9541/9416,108617/112992
6783/8648,2/3
535792621/554751656,202493398/208031871
3332051/3449880,3998/4107
3/4,2504/3243
48351/47915,3998/4107
1427/1295,26/37
233/296,26/37
233/296,2/3
41/37,76/111
1,1
3/4,1
1,1
317/296,939/1184
317/296,5221/7770
382523/405224,48448/50653
3/4,871/1081
3/4,2/3
19/18,2/3
3/4,4777/6720
233/296,393/518
339899/405224,37318/50653
6783/8648,2/3
233/296,2/3

