8
1/2,1
0,1/2
0,0
1/2,0
1,1/2
1,0
1,1
0,1
4
4 2 3 0 1
4 3 5 4 0
3 4 6 0
3 1 0 7
1424692832988056006512542422055398066396899573232114/1430089396749374400476605082745001846951433283729865,23/265
1300571866477732945339101226194511113642624231632261/2860178793498748800953210165490003693902866567459730,287/530
-124120966510323061173441195860886952754275341592963/2860178793498748800953210165490003693902866567459730,132/265
26/5396563761318393964062660689603780554533710504641,0
1300571866477732945339101226194511113642624231632261/2860178793498748800953210165490003693902866567459730,287/530
-124120966510323061173441195860886952754275341592963/2860178793498748800953210165490003693902866567459730,132/265
712346416494028003256271211027699033198449786619502/1430089396749374400476605082745001846951433283729865,23/530
712346416494028003256271211027699033198449786619502/1430089396749374400476605082745001846951433283729865,23/530

