80
1/20,1
1,1/20
1,0
0,1
0,19/20
19/20,0
9/10,0
0,9/10
0,17/20
17/20,0
4/5,0
0,4/5
0,3/4
3/4,0
7/10,0
0,7/10
0,13/20
13/20,0
3/5,0
0,3/5
0,11/20
11/20,0
1/2,0
0,1/2
0,9/20
9/20,0
2/5,0
0,2/5
0,7/20
7/20,0
3/10,0
0,3/10
0,1/4
1/4,0
1/5,0
0,1/5
0,3/20
3/20,0
1/10,0
0,1/10
1/20,0
0,1/20
0,0
1,1/10
1/10,1
3/20,1
1,3/20
1,1/5
1/5,1
1/4,1
1,1/4
1,3/10
3/10,1
7/20,1
1,7/20
1,2/5
2/5,1
9/20,1
1,9/20
1,1/2
1/2,1
11/20,1
1,11/20
1,3/5
3/5,1
13/20,1
1,13/20
1,7/10
7/10,1
3/4,1
1,3/4
1,4/5
4/5,1
17/20,1
1,17/20
1,9/10
9/10,1
19/20,1
1,19/20
1,1
40
4 2 1 0 3
4 5 2 3 4
4 6 5 4 7
4 9 6 7 8
4 10 9 8 11
4 13 10 11 12
4 14 13 12 15
4 17 14 15 16
4 18 17 16 19
4 21 18 19 20
4 22 21 20 23
4 25 22 23 24
4 26 25 24 27
4 29 26 27 28
4 30 29 28 31
4 33 30 31 32
4 34 33 32 35
4 37 34 35 36
4 38 37 36 39
4 40 38 39 41
3 42 40 41
4 1 43 44 0
4 43 46 45 44
4 46 47 48 45
4 47 50 49 48
4 50 51 52 49
4 51 54 53 52
4 54 55 56 53
4 55 58 57 56
4 58 59 60 57
4 59 62 61 60
4 62 63 64 61
4 63 66 65 64
4 66 67 68 65
4 67 70 69 68
4 70 71 72 69
4 71 74 73 72
4 74 75 76 73
4 75 78 77 76
3 78 79 77
26488116629/22074954180,219149801/418564563
2372966155/1103747709,-3569730677/8371291260
2372966155/1103747709,-199414762/418564563
1269218446/1103747709,219149801/418564563
26488116629/22074954180,219149801/418564563
2372966155/1103747709,-3569730677/8371291260
46355575391/22074954180,-3569730677/8371291260
26488116629/22074954180,3964431457/8371291260
13795932169/11037477090,3964431457/8371291260
46355575391/22074954180,-1575583057/4185645630
22625913841/11037477090,-1575583057/4185645630
13795932169/11037477090,1772933447/4185645630
28695612047/22074954180,1772933447/4185645630
22625913841/11037477090,-2732601551/8371291260
44148079973/22074954180,-2732601551/8371291260
28695612047/22074954180,3127302331/8371291260
7449839939/5518738545,3127302331/8371291260
44148079973/22074954180,-578509247/2092822815
10761083066/5518738545,-578509247/2092822815
7449839939/5518738545,677184442/2092822815
6180621493/4414990836,677184442/2092822815
10761083066/5518738545,-379094485/1674258252
8388116911/4414990836,-379094485/1674258252
6180621493/4414990836,458034641/1674258252
16003427587/11037477090,458034641/1674258252
8388116911/4414990836,-738453931/4185645630
20418418423/11037477090,-738453931/4185645630
16003427587/11037477090,935804321/4185645630
33110602883/22074954180,935804321/4185645630
20418418423/11037477090,-1058343299/8371291260
39733089137/22074954180,-1058343299/8371291260
33110602883/22074954180,1453044079/8371291260
8553587648/5518738545,1453044079/8371291260
39733089137/22074954180,-159944684/2092822815
9657335357/5518738545,-159944684/2092822815
8553587648/5518738545,258619879/2092822815
35318098301/22074954180,258619879/2092822815
9657335357/5518738545,-221214173/8371291260
37525593719/22074954180,-221214173/8371291260
35318098301/22074954180,615914953/8371291260
37525593719/22074954180,19735039/837129126
3642184601/2207495418,615914953/8371291260
3642184601/2207495418,19735039/837129126
46355575391/22074954180,-3569730677/8371291260
26488116629/22074954180,3964431457/8371291260
13795932169/11037477090,3964431457/8371291260
46355575391/22074954180,-1575583057/4185645630
22625913841/11037477090,-1575583057/4185645630
13795932169/11037477090,1772933447/4185645630
28695612047/22074954180,1772933447/4185645630
22625913841/11037477090,-2732601551/8371291260
44148079973/22074954180,-2732601551/8371291260
28695612047/22074954180,3127302331/8371291260
7449839939/5518738545,3127302331/8371291260
44148079973/22074954180,-578509247/2092822815
10761083066/5518738545,-578509247/2092822815
7449839939/5518738545,677184442/2092822815
6180621493/4414990836,677184442/2092822815
10761083066/5518738545,-379094485/1674258252
8388116911/4414990836,-379094485/1674258252
6180621493/4414990836,458034641/1674258252
16003427587/11037477090,458034641/1674258252
8388116911/4414990836,-738453931/4185645630
20418418423/11037477090,-738453931/4185645630
16003427587/11037477090,935804321/4185645630
33110602883/22074954180,935804321/4185645630
20418418423/11037477090,-1058343299/8371291260
39733089137/22074954180,-1058343299/8371291260
33110602883/22074954180,1453044079/8371291260
8553587648/5518738545,1453044079/8371291260
39733089137/22074954180,-159944684/2092822815
9657335357/5518738545,-159944684/2092822815
8553587648/5518738545,258619879/2092822815
35318098301/22074954180,258619879/2092822815
9657335357/5518738545,-221214173/8371291260
37525593719/22074954180,-221214173/8371291260
35318098301/22074954180,615914953/8371291260
3642184601/2207495418,615914953/8371291260
37525593719/22074954180,19735039/837129126
3642184601/2207495418,19735039/837129126

