16
979/1662,103/1108
223/1662,333/1108
1439/1662,775/1108
683/1662,1005/1108
0,3/460
0,0
551/1008,0
0,547/1512
143/690,1
0,1
1,457/460
1,1
457/1008,1
547/690,0
1,0
1,965/1512
9
4 1 0 2 3
5 4 5 6 0 1
5 7 1 3 8 9
3 4 1 7
5 3 2 10 11 12
3 3 12 8
5 0 13 14 15 2
3 6 13 0
3 2 15 10
4012,3910
1111198/277,2166255/554
3334202/831,1083238/277
3333824/831,2166591/554
6667411/1662,249138057/63710
1846875115/460374,1200196821/306916
1120226437/279216,4332383/1108
6667411/1662,1637663135/418824
383409227/95565,4333079/1108
1847094797/460374,1200214835/306916
2222727/554,124563004/31855
615694623/153458,1200136153/306916
1120153019/279216,4333079/1108
127795771/31855,4332383/1108
1846864187/460374,1200118139/306916
2222727/554,1637881501/418824

