16
979/1662,103/1108
223/1662,333/1108
1439/1662,775/1108
683/1662,1005/1108
0,3/460
0,0
551/1008,0
0,547/1512
143/690,1
0,1
1,457/460
1,1
457/1008,1
547/690,0
1,0
1,965/1512
9
4 1 0 2 3
5 4 5 6 0 1
5 7 1 3 8 9
3 4 1 7
5 3 2 10 11 12
3 3 12 8
5 0 13 14 15 2
3 6 13 0
3 2 15 10
1274,2111
352772/277,1169609/554
1058924/831,584915/277
1058546/831,1169945/554
2116855/1662,134523767/63710
586371103/460374,648054937/306916
355733029/279216,2339091/1108
2116855/1662,884198759/418824
121752257/95565,2339787/1108
586590785/460374,648072951/306916
705875/554,67255859/31855
195526619/153458,647994269/306916
355659611/279216,2339787/1108
40576781/31855,2339091/1108
586360175/460374,647976255/306916
705875/554,884417125/418824

