16
979/1662,103/1108
223/1662,333/1108
1439/1662,775/1108
683/1662,1005/1108
0,3/460
0,0
551/1008,0
0,547/1512
143/690,1
0,1
1,457/460
1,1
457/1008,1
547/690,0
1,0
1,965/1512
9
4 1 0 2 3
5 4 5 6 0 1
5 7 1 3 8 9
3 4 1 7
5 3 2 10 11 12
3 3 12 8
5 0 13 14 15 2
3 6 13 0
3 2 15 10
2483,1725
687665/277,955765/554
2063603/831,477993/277
2063225/831,956101/554
4126213/1662,109931707/63710
1142963269/460374,529585361/306916
693305173/279216,1911403/1108
4126213/1662,722532695/418824
237290342/95565,1912099/1108
1143182951/460374,529603375/306916
1375661/554,54959829/31855
381057341/153458,529524693/306916
693231755/279216,1912099/1108
79089476/31855,1911403/1108
1142952341/460374,529506679/306916
1375661/554,722751061/418824

