16
979/1662,103/1108
223/1662,333/1108
1439/1662,775/1108
683/1662,1005/1108
0,3/460
0,0
551/1008,0
0,547/1512
143/690,1
0,1
1,457/460
1,1
457/1008,1
547/690,0
1,0
1,965/1512
9
4 1 0 2 3
5 4 5 6 0 1
5 7 1 3 8 9
3 4 1 7
5 3 2 10 11 12
3 3 12 8
5 0 13 14 15 2
3 6 13 0
3 2 15 10
9513,4244
2634975/277,2351291/554
7905533/831,1175756/277
7905155/831,2351627/554
15810073/1662,270417197/63710
4379392489/460374,1302706765/306916
2656193653/279216,4702455/1108
15810073/1662,1777550351/418824
909112292/95565,4703151/1108
4379612171/460374,1302724779/306916
5270281/554,135202574/31855
1459867081/153458,1302646097/306916
2656120235/279216,4703151/1108
303030126/31855,4702455/1108
4379381561/460374,1302628083/306916
5270281/554,1777768717/418824

