8
1/2,1
0,1/2
0,0
1,1
0,1
1,1/2
1/2,0
1,0
4
4 1 2 3 0
3 1 0 4
4 2 6 5 3
3 6 7 5
-295147905179352825855/2,-590295810358705651711
-147573952589676412928,-1180591620717411303423/2
-147573952589676412928,-590295810358705651712
-147573952589676412927,-590295810358705651711
-295147905179352825855/2,-1180591620717411303423/2
-295147905179352825855/2,-590295810358705651711
-147573952589676412928,-1180591620717411303423/2
-295147905179352825855/2,-1180591620717411303423/2

