11
3/4,1/2
1/4,1
1/4,0
0,3/4
0,1/4
0,1
0,0
1,3/4
1,1
1,1/4
1,0
7
3 2 0 1
4 4 2 1 3
3 3 1 5
3 6 2 4
4 0 7 8 1
4 2 10 9 0
3 9 7 0
-3/4,-3/4
-5/4,-1/4
-5/4,-5/4
-1,-1/2
-1,-1
-5/4,-1/2
-5/4,-1
-1,-1
-5/4,-1
-1,-1/2
-5/4,-1/2

