20
3/8,7/8
7/8,3/8
5/8,1/8
1/8,5/8
1/4,0
0,1/4
1/2,0
0,1/2
0,0
1/4,1
0,3/4
0,1
1,1/2
1,3/4
3/4,1
1/2,1
1,1
1,1/4
3/4,0
1,0
11
4 2 1 0 3
6 4 6 2 3 7 5
3 8 4 5
5 10 3 0 9 11
3 7 3 10
6 1 12 13 14 15 0
3 13 16 14
3 0 15 9
5 2 18 19 17 1
3 6 18 2
3 17 12 1
-1/4,3/4
1/4,1/4
0,0
-1/2,1/2
1/8,3/8
-1/8,5/8
1/8,1/8
-3/8,5/8
-1/8,3/8
-1/8,5/8
-3/8,3/8
-1/8,3/8
1/8,1/8
-1/8,1/8
-3/8,3/8
-3/8,5/8
-1/8,3/8
1/8,3/8
-1/8,1/8
-1/8,3/8

