13
3/4,7/8
0,7/8
0,1/8
1/2,1/8
1,5/8
5/8,1
0,1
3/4,1
1,1
1,1/8
0,0
5/8,0
1,0
7
5 2 3 4 0 1
4 1 0 5 6
4 4 8 7 0
3 0 7 5
3 3 9 4
4 10 11 3 2
4 11 12 9 3
3/4,-1
0,-1
0,-7/4
1/2,-7/4
1,-5/4
5/8,-9/8
0,-9/8
5/8,-1
5/8,-5/4
1/2,-5/4
0,-13/8
5/8,-13/8
5/8,-5/4

