34
549/595,66/85
2/119,6/17
46/595,19/85
117/119,11/17
0,186/539
0,101/539
0,271/539
0,7/18
513/595,77/85
61/84,1
0,356/539
9/11,1
0,9/11
7/18,1
13/252,1
0,526/539
0,1
1,438/539
1,353/539
1,523/539
1,1
1,268/539
82/595,8/85
1,11/18
0,16/539
2/11,0
23/84,0
1,183/539
1,2/11
11/18,0
239/252,0
1,13/539
1,0
0,0
19
4 1 2 3 0
4 5 2 1 4
5 6 7 1 0 8
5 10 6 8 11 9
4 12 10 9 13
4 12 13 14 15
3 15 14 16
3 4 1 7
4 3 18 17 0
4 0 17 19 8
4 8 19 20 11
5 2 22 21 23 3
4 24 22 2 5
5 22 25 26 27 21
4 26 29 28 27
4 29 30 31 28
3 30 32 31
4 24 33 25 22
3 23 18 3
924/85,1452/85
847/85,1416/85
1193/119,281/17
6504/595,1441/85
5939/595,763584/45815
6011/595,758951/45815
5991/595,758231/45815
5939/595,25433/1530
6504/595,1441/85
11011/1020,1449/85
5991/595,765456/45815
71256/6545,1449/85
6063/595,15527/935
113299/10710,1427/85
31339/3060,1427/85
6063/595,768048/45815
516291/50575,121009/7225
6422/595,780972/45815
382/35,45667/2695
6422/595,773747/45815
544718/50575,122157/7225
6442/595,781692/45815
847/85,1416/85
382/35,1529/90
6011/595,766176/45815
65507/6545,1408/85
72119/7140,1408/85
6442/595,774467/45815
182/17,3180/187
3157/306,286/17
45643/4284,286/17
182/17,154375/9163
540514/50575,121836/7225
512087/50575,120688/7225

