20
1/4,3/4
1/4,1/4
3/4,3/4
0,1/2
0,3/4
0,1/4
0,0
1/4,1
1/2,1
3/4,1
1,1
0,1
3/4,1/4
1/2,0
3/4,0
1/4,0
1,1/4
1,1/2
1,3/4
1,0
16
3 1 2 0
4 3 1 0 4
3 5 1 3
3 6 1 5
4 0 2 8 7
3 2 9 8
3 2 10 9
4 4 0 7 11
3 1 12 2
4 13 14 12 1
3 15 13 1
3 6 15 1
4 12 16 17 2
3 17 18 2
3 2 18 10
4 14 19 16 12
0,1/2
0,0
1/2,1/2
1/4,1/4
1/4,1/2
0,1/4
1/4,1/4
0,1/4
1/4,1/4
1/4,1/2
1/4,1/4
1/4,1/4
0,1/2
1/4,1/4
1/4,1/2
0,1/4
0,1/4
1/4,1/4
1/4,1/2
1/4,1/4

