24
11/13,2/5
2/13,2/5
11/13,3/5
2/13,3/5
0,2/5
0,3/5
11/13,4/5
2/13,4/5
11/13,1
2/13,1
0,4/5
0,1
1,2/5
1,3/5
1,4/5
1,1
2/13,1/5
11/13,1/5
0,1/5
11/13,0
2/13,0
0,0
1,1/5
1,0
15
4 1 0 2 3
4 4 1 3 5
4 3 2 6 7
4 7 6 8 9
4 5 3 7 10
4 10 7 9 11
4 0 12 13 2
4 2 13 14 6
4 6 14 15 8
4 16 17 0 1
4 18 16 1 4
4 20 19 17 16
4 21 20 16 18
4 17 22 12 0
4 19 23 22 17
121/78,1/5
67/78,1/5
121/78,2/5
67/78,2/5
79/78,1/5
79/78,2/5
121/78,1/5
67/78,1/5
121/78,2/5
67/78,2/5
79/78,1/5
79/78,2/5
109/78,1/5
109/78,2/5
109/78,1/5
109/78,2/5
67/78,2/5
121/78,2/5
79/78,2/5
121/78,1/5
67/78,1/5
79/78,1/5
109/78,2/5
109/78,1/5

