88
0,21/22
21/22,0
1,0
0,1
10/11,0
0,10/11
0,19/22
19/22,0
9/11,0
0,9/11
0,17/22
17/22,0
8/11,0
0,8/11
0,15/22
15/22,0
7/11,0
0,7/11
0,13/22
13/22,0
6/11,0
0,6/11
0,1/2
1/2,0
5/11,0
0,5/11
0,9/22
9/22,0
4/11,0
0,4/11
0,7/22
7/22,0
3/11,0
0,3/11
0,5/22
5/22,0
2/11,0
0,2/11
0,3/22
3/22,0
1/11,0
0,1/11
1/22,0
0,1/22
0,0
1/22,1
1,1/22
1,1/11
1/11,1
3/22,1
1,3/22
1,2/11
2/11,1
5/22,1
1,5/22
1,3/11
3/11,1
7/22,1
1,7/22
1,4/11
4/11,1
9/22,1
1,9/22
1,5/11
5/11,1
1/2,1
1,1/2
1,6/11
6/11,1
13/22,1
1,13/22
1,7/11
7/11,1
15/22,1
1,15/22
1,8/11
8/11,1
17/22,1
1,17/22
1,9/11
9/11,1
19/22,1
1,19/22
1,10/11
10/11,1
21/22,1
1,21/22
1,1
44
4 1 2 3 0
4 4 1 0 5
4 7 4 5 6
4 8 7 6 9
4 11 8 9 10
4 12 11 10 13
4 15 12 13 14
4 16 15 14 17
4 19 16 17 18
4 20 19 18 21
4 23 20 21 22
4 24 23 22 25
4 27 24 25 26
4 28 27 26 29
4 31 28 29 30
4 32 31 30 33
4 35 32 33 34
4 36 35 34 37
4 39 36 37 38
4 40 39 38 41
4 42 40 41 43
3 44 42 43
4 2 46 45 3
4 46 47 48 45
4 47 50 49 48
4 50 51 52 49
4 51 54 53 52
4 54 55 56 53
4 55 58 57 56
4 58 59 60 57
4 59 62 61 60
4 62 63 64 61
4 63 66 65 64
4 66 67 68 65
4 67 70 69 68
4 70 71 72 69
4 71 74 73 72
4 74 75 76 73
4 75 78 77 76
4 78 79 80 77
4 79 82 81 80
4 82 83 84 81
4 83 86 85 84
3 86 87 85
5/2,5/11
38/11,-1/2
7/2,-1/2
5/2,1/2
38/11,-5/11
28/11,5/11
28/11,9/22
75/22,-5/11
75/22,-9/22
57/22,9/22
57/22,4/11
37/11,-9/22
37/11,-4/11
29/11,4/11
29/11,7/22
73/22,-4/11
73/22,-7/22
59/22,7/22
59/22,3/11
36/11,-7/22
36/11,-3/11
30/11,3/11
30/11,5/22
71/22,-3/11
71/22,-5/22
61/22,5/22
61/22,2/11
35/11,-5/22
35/11,-2/11
31/11,2/11
31/11,3/22
69/22,-2/11
69/22,-3/22
63/22,3/22
63/22,1/11
34/11,-3/22
34/11,-1/11
32/11,1/11
32/11,1/22
67/22,-1/11
67/22,-1/22
65/22,1/22
3,-1/22
65/22,0
3,0
5/2,5/11
38/11,-1/2
38/11,-5/11
28/11,5/11
28/11,9/22
75/22,-5/11
75/22,-9/22
57/22,9/22
57/22,4/11
37/11,-9/22
37/11,-4/11
29/11,4/11
29/11,7/22
73/22,-4/11
73/22,-7/22
59/22,7/22
59/22,3/11
36/11,-7/22
36/11,-3/11
30/11,3/11
30/11,5/22
71/22,-3/11
71/22,-5/22
61/22,5/22
61/22,2/11
35/11,-5/22
35/11,-2/11
31/11,2/11
31/11,3/22
69/22,-2/11
69/22,-3/22
63/22,3/22
63/22,1/11
34/11,-3/22
34/11,-1/11
32/11,1/11
32/11,1/22
67/22,-1/11
67/22,-1/22
65/22,1/22
65/22,0
3,-1/22
3,0

