20
1,7/16
0,7/16
1,9/16
0,9/16
1,11/16
0,11/16
1,13/16
0,13/16
1,15/16
0,15/16
1,1
0,1
0,5/16
1,5/16
1,3/16
0,3/16
0,1/16
1,1/16
0,0
1,0
9
4 1 0 2 3
4 3 2 4 5
4 5 4 6 7
4 7 6 8 9
4 9 8 10 11
4 12 13 0 1
4 15 14 13 12
4 16 17 14 15
4 18 19 17 16
1,7/8
0,7/8
1,1
0,1
1,7/8
0,7/8
1,1
0,1
1,7/8
0,7/8
1,15/16
0,15/16
0,1
1,1
1,7/8
0,7/8
0,1
1,1
0,15/16
1,15/16

