36
5/8,5/8
5/8,3/8
3/8,3/8
3/8,5/8
1/8,5/8
1/8,3/8
0,3/8
0,5/8
5/8,7/8
3/8,7/8
5/8,1
3/8,1
1/8,7/8
0,7/8
1/8,1
0,1
7/8,3/8
7/8,5/8
1,3/8
1,5/8
7/8,7/8
7/8,1
1,7/8
1,1
5/8,1/8
3/8,1/8
1/8,1/8
0,1/8
5/8,0
3/8,0
1/8,0
0,0
7/8,1/8
1,1/8
7/8,0
1,0
25
4 2 1 0 3
4 5 2 3 4
4 6 5 4 7
4 3 0 8 9
4 9 8 10 11
4 4 3 9 12
4 7 4 12 13
4 12 9 11 14
4 13 12 14 15
4 1 16 17 0
4 16 18 19 17
4 0 17 20 8
4 8 20 21 10
4 17 19 22 20
4 20 22 23 21
4 25 24 1 2
4 26 25 2 5
4 27 26 5 6
4 29 28 24 25
4 30 29 25 26
4 31 30 26 27
4 24 32 16 1
4 32 33 18 16
4 28 34 32 24
4 34 35 33 32
3/4,3/4
3/4,1/2
1/2,1/2
1/2,3/4
3/4,3/4
3/4,1/2
5/8,1/2
5/8,3/4
3/4,1/2
1/2,1/2
3/4,5/8
1/2,5/8
3/4,1/2
5/8,1/2
3/4,5/8
5/8,5/8
1/2,1/2
1/2,3/4
5/8,1/2
5/8,3/4
1/2,1/2
1/2,5/8
5/8,1/2
5/8,5/8
3/4,3/4
1/2,3/4
3/4,3/4
5/8,3/4
3/4,5/8
1/2,5/8
3/4,5/8
5/8,5/8
1/2,3/4
5/8,3/4
1/2,5/8
5/8,5/8

