16
979/1662,103/1108
223/1662,333/1108
1439/1662,775/1108
683/1662,1005/1108
0,3/460
0,0
551/1008,0
0,547/1512
143/690,1
0,1
1,457/460
1,1
457/1008,1
547/690,0
1,0
1,965/1512
9
4 1 0 2 3
5 4 5 6 0 1
5 7 1 3 8 9
3 4 1 7
5 3 2 10 11 12
3 3 12 8
5 0 13 14 15 2
3 6 13 0
3 2 15 10
663,7995
183525/277,4429345/554
551183/831,2214783/277
550805/831,4429681/554
1101373/1662,509393407/63710
305082589/460374,2453948681/306916
185132053/279216,8858563/1108
1101373/1662,3348559175/418824
63362042/95565,8859259/1108
305302271/460374,2453966695/306916
367381/554,254690679/31855
101763781/153458,2453888013/306916
185058635/279216,8859259/1108
21113376/31855,8858563/1108
305071661/460374,2453869999/306916
367381/554,3348777541/418824

