30
5/8,1/2
3/8,3/4
3/8,1/4
1/8,1/2
0,5/8
0,3/4
1/8,1
0,7/8
0,1
0,3/8
0,1/4
1/8,0
0,1/8
0,0
7/8,3/4
5/8,1
3/8,1
7/8,1
1,7/8
1,1
7/8,1/4
5/8,0
7/8,0
1,1/8
1,0
3/8,0
1,3/8
1,5/8
1,1/4
1,3/4
27
3 2 0 1
3 2 1 3
4 4 3 1 5
4 5 1 6 7
3 7 6 8
4 10 2 3 9
4 12 11 2 10
3 13 11 12
3 9 3 4
3 0 14 1
3 1 14 15
3 1 15 16
3 1 16 6
3 14 17 15
4 14 18 19 17
3 2 20 0
3 21 20 2
3 21 22 20
4 22 24 23 20
3 25 21 2
3 11 25 2
3 20 14 0
4 20 26 27 14
3 20 28 26
3 23 28 20
3 27 29 14
3 14 29 18
1/4,-1/4
0,0
0,-1/2
1/4,-1/4
1/8,-3/8
0,-3/8
1/4,-1/4
1/8,-3/8
1/8,-1/4
1/8,-1/8
0,-1/8
1/4,-1/4
1/8,-1/8
1/8,-1/4
0,-1/2
1/4,-1/4
0,-1/4
0,-1/4
1/8,-3/8
1/8,-1/4
0,0
1/4,-1/4
0,-1/4
1/8,-1/8
1/8,-1/4
0,-1/4
1/8,-1/8
1/8,-3/8
0,-1/8
0,-3/8

