16
1/2,3/4
3/4,1/2
1/2,1/4
1/4,1/2
1/4,0
0,1/4
0,0
1/4,1
0,3/4
0,1
1,3/4
3/4,1
1,1
1,1/4
3/4,0
1,0
13
4 2 1 0 3
4 4 2 3 5
3 6 4 5
4 3 0 7 8
3 8 7 9
3 5 3 8
4 1 10 11 0
3 10 12 11
3 0 11 7
4 14 13 1 2
3 4 14 2
3 14 15 13
3 13 10 1
3/8,13/4
5/8,3
3/8,11/4
1/8,3
5/8,3
3/8,13/4
3/8,3
5/8,3
3/8,11/4
3/8,3
3/8,11/4
1/8,3
3/8,3
3/8,13/4
1/8,3
3/8,3

