36
1,15/32
0,15/32
1,17/32
0,17/32
1,19/32
0,19/32
1,21/32
0,21/32
1,23/32
0,23/32
1,25/32
0,25/32
1,27/32
0,27/32
1,29/32
0,29/32
1,31/32
0,31/32
1,1
0,1
0,13/32
1,13/32
1,11/32
0,11/32
0,9/32
1,9/32
1,7/32
0,7/32
0,5/32
1,5/32
1,3/32
0,3/32
0,1/32
1,1/32
0,0
1,0
17
4 1 0 2 3
4 3 2 4 5
4 5 4 6 7
4 7 6 8 9
4 9 8 10 11
4 11 10 12 13
4 13 12 14 15
4 15 14 16 17
4 17 16 18 19
4 20 21 0 1
4 23 22 21 20
4 24 25 22 23
4 27 26 25 24
4 28 29 26 27
4 31 30 29 28
4 32 33 30 31
4 34 35 33 32
-888888880,0
-888888881,0
-888888880,1/16
-888888881,1/16
-888888880,0
-888888881,0
-888888880,1/16
-888888881,1/16
-888888880,0
-888888881,0
-888888880,1/16
-888888881,1/16
-888888880,0
-888888881,0
-888888880,1/16
-888888881,1/16
-888888880,0
-888888881,0
-888888880,1/32
-888888881,1/32
-888888881,1/16
-888888880,1/16
-888888880,0
-888888881,0
-888888881,1/16
-888888880,1/16
-888888880,0
-888888881,0
-888888881,1/16
-888888880,1/16
-888888880,0
-888888881,0
-888888881,1/16
-888888880,1/16
-888888881,1/32
-888888880,1/32

