11
3/4,1/2
1/4,1
1/4,0
3/4,0
0,3/4
0,0
0,1
3/4,1
1,3/4
1,0
1,1
6
4 2 3 0 1
4 5 2 1 4
3 4 1 6
3 0 7 1
4 3 9 8 0
4 0 8 10 7
-7/8,15/8
-11/8,19/8
-11/8,11/8
-7/8,11/8
-9/8,17/8
-9/8,11/8
-11/8,17/8
-11/8,15/8
-9/8,17/8
-9/8,11/8
-11/8,17/8

