8
2/3,1
0,2/3
0,0
1/3,0
1,1/3
1,1
0,1
1,0
3
6 2 3 4 5 0 1
3 1 0 6
3 3 7 4
23999999999998971013/24,8000000000000244455/8
7999999999999656999/8,24000000000000733357/24
7999999999999656999/8,8000000000000244447/8
23999999999998971005/24,8000000000000244447/8
7999999999999657007/8,24000000000000733349/24
7999999999999657007/8,8000000000000244455/8
119999999999994855017/120,120000000000003666761/120
119999999999994855073/120,120000000000003666769/120

