16
1/6,5/6
1/6,1/6
5/6,1/6
5/6,5/6
0,1/6
0,5/6
1/6,1
5/6,1
0,1
1,1/6
1,5/6
1,1
1/6,0
5/6,0
0,0
1,0
9
4 1 2 3 0
4 4 1 0 5
4 0 3 7 6
4 5 0 6 8
4 2 9 10 3
4 3 10 11 7
4 12 13 2 1
4 14 12 1 4
4 13 15 9 2
1/100,203/300
1/100,1/100
203/300,1/100
203/300,203/300
53/300,1/100
53/300,203/300
1/100,51/100
203/300,51/100
53/300,51/100
51/100,1/100
51/100,203/300
51/100,51/100
1/100,53/300
203/300,53/300
53/300,53/300
51/100,53/300

