31
44089/58240,321/2176
6527/8320,1855/2176
1793/8320,563/2176
1793/8320,11201/71808
1793/8320,114688856365354073/2306674530419803008
8670945660301153251/33317078186965364480,0
4794209/6381440,0
1793/8320,0
13263518231/114790542880,2928058897/18961352832
0,174343/5150592
0,0
5689035394801947353/33317078186965364480,0
134647401651/1655355628160,141728251047/178269067648
120876897247/1071112465280,213765179273/840411318912
49985179118992346631619/85029847264767721056000,1
15609312407737467/224937408816140800,1
375298578946201638898475728846081/497557312146560577270912118616960,1
35300263/44670080,1
0,42400678914488536231338692403/53523749573814571523095769600
0,103294239463966908027411841/404515667016797013750793344
229945877446189214505697/34407139077491944535857280,6744616777599778366900565/26996370660801371866595712
0,412718633609/1653855091200
0,1
0,2595861280250053845/10670122665803555968
1,729975009166363425/5514678264576061568
1,13562472027932419/23012869121043328
1,0
1,35040156325303418811704489/42845340565774930340416000
1,1732143368656510359647778493942229/1750848176540375804128336059411072
1969296189214857748742503661086738535136329/2381537048213789990868283312071317170464640,1
1,1
22
4 2 3 0 1
5 4 5 6 0 3
3 7 5 4
3 8 3 2
6 9 10 11 4 3 8
3 11 7 4
4 13 2 1 12
4 12 1 14 15
3 1 16 14
3 1 17 16
5 19 20 13 12 18
3 21 20 19
4 18 12 15 22
3 8 2 13
5 9 8 13 20 23
3 23 20 21
4 0 24 25 1
4 6 26 24 0
3 25 27 1
3 1 27 28
4 1 28 30 29
3 1 29 17
39/70,19/68
38/65,63/64
1/64,25/64
1/64,19/66
428481689871101/22614456180586304,26736516224155775/67843368541758912
167175611187715013/2562852168228104960,5967248849862997/13488695622253184
25678751076610533/46184069924431790,4291581620310452491/10049653615556357504
404199557936678867907/5897954844490804059968,4691945447382192999359/11795909688981608119936
4082460883/35320167040,19959323/69710856
714054338978124503/3040561662195707520,91950659957498347/228042124664678064
909090012600027/3853690319639680,5726474008108949/13102547086774912
167175611187715013/2562852168228104960,5967248849862997/13488695622253184
39/70,19/68
1/64,19/66
11749193412103136461877/28343282421589240352000,527767366844210308517/654075748190520931200
1749091931478648787624117/4965945829916744067443200,308335611094870054066673/1055263488857308114331680
529342158316857378052987717343/914627412034118708218588453340,911906262926617072345091694831/1093532554168265004991015645312
168322092289882631999425121285465209323509/309513015095363825684161219035586497051920,4584823079142622747510370582396288584521/5441987078599803528512724730296026321792
2205147917497200096619287/3935569821604012611992336,12481034797149472164078149/34598416014101209775756800
989238339631205112560927/39658398727136962132430720,91599345894541621800703/228798454195020935379408
428481689871101/22614456180586304,26736516224155775/67843368541758912
11851251979068476384264879/462611292305440178917760640,208095196088241782941137485503/527376873228201803966247129600
1318664822021439758497973799691903/3740910854104733221738888908626560,270528999883011960637900696725847/748182170820946644347777781725312
933735023921188626480067/36729038311808580525873280,56626088434843456927627/141265531968494540484128
508848265091621931/1621964195463547520,5742114189935315/20274552443294344
30733820506245913/87990381933400960,250029881858143/338424545897696
5782683807438884286399711/18802230636535476534485120,26558291104549132133909005/63927584164220620217249408
117974394880927678722099/204775524762894887656400,275890681591268325520069/360044878703991011264000
303473912853561298274101246683181/743824388726303446198312704978560,10299945857091803952618323958427/12873883651032175030355412201552
2533177452840091686661792466692763575687/4377825456275349247919638441307568328060,4349570675611106027879501498841886771479/5234147358711626353556666619936960814208
189335405090083452450119391381697792369/461185345644051146484129214431866637440,5602980097412331569063192745167120895/7095159163754633022832757145105640576

